<?xml version="1.0" encoding="UTF-8"?>
<CustomTab xmlns="http://soap.sforce.com/2006/04/metadata">
    <frameHeight>855</frameHeight>
    <hasSidebar>true</hasSidebar>
    <label>Mass Donor TY</label>
    <mobileReady>false</mobileReady>
    <motif>Custom13: Box</motif>
    <url>/apex/loop__masslooplus?sessionId={!$Api.Session_ID}&amp;reportObject=Opportunity</url>
    <urlEncodingKey>UTF-8</urlEncodingKey>
</CustomTab>
